#define pacman_width 16
#define pacman_height 16
static unsigned char pacman_bits[] = {
   0x00, 0x00, 0xe0, 0x07, 0xf8, 0x1f, 0xfc, 0x3f, 0xfc, 0x39, 0xfe, 0x79,
   0xfe, 0x7f, 0xfe, 0x7f, 0xfe, 0x01, 0xfe, 0x01, 0xfe, 0x03, 0xfc, 0x07,
   0xfc, 0x0f, 0xf8, 0x1f, 0xe0, 0x07, 0x00, 0x00 };
